verilog/pixelTOP_tb.vcd
$date
	Fri Nov 19 09:04:50 2021
$end
$version
	Icarus Verilog
$end
$timescale
	1ps
$end
$scope module test $end
$var wire 8 ! pixelDataOut2 [7:0] $end
$var wire 8 " pixelDataOut1 [7:0] $end
$var reg 1 # clk $end
$var reg 6 $ exposeCycles_pixel [5:0] $end
$var reg 1 % state_reset $end
$scope module top1 $end
$var wire 1 # clk $end
$var wire 6 & exposeCycles_pixel [5:0] $end
$var wire 8 ' pixData1 [7:0] $end
$var wire 8 ( pixData2 [7:0] $end
$var wire 1 % state_reset $end
$var wire 4 ) read_reg [3:0] $end
$var wire 1 * read $end
$var wire 8 + pixelDataOut2 [7:0] $end
$var wire 8 , pixelDataOut1 [7:0] $end
$var wire 1 - frame_reset $end
$var wire 1 . expose_finished $end
$var wire 1 / expose_enable $end
$var wire 1 0 expose $end
$var wire 8 1 data [7:0] $end
$var wire 1 2 convert $end
$var wire 1 3 anaRamp $end
$var wire 1 4 anaBias1 $end
$var wire 1 5 ADC_reset $end
$var wire 1 6 ADC_finished $end
$scope module a1 $end
$var wire 1 # clk $end
$var wire 1 5 reset $end
$var wire 1 2 enable $end
$var reg 1 6 ADC_finished $end
$var reg 1 3 analog_ramp $end
$var reg 8 7 digital_ramp [7:0] $end
$var reg 8 8 out [7:0] $end
$upscope $end
$scope module e1 $end
$var wire 1 # clk $end
$var wire 6 9 exposecycles [5:0] $end
$var wire 1 - reset $end
$var wire 1 / expose_enable $end
$var wire 1 : anaBias1 $end
$var reg 6 ; count [5:0] $end
$var reg 1 0 expose $end
$var reg 1 . expose_finished $end
$upscope $end
$scope module m1 $end
$var wire 1 # clk $end
$var wire 8 < pixData1 [7:0] $end
$var wire 8 = pixData2 [7:0] $end
$var wire 4 > read_select [3:0] $end
$var wire 1 * read $end
$var wire 1 - frame_reset $end
$var reg 8 ? pixelDataOut1 [7:0] $end
$var reg 8 @ pixelDataOut2 [7:0] $end
$scope module sr1 $end
$var wire 1 # clk $end
$var wire 1 - reset $end
$var wire 1 * read $end
$var reg 1 A data $end
$var reg 4 B out [3:0] $end
$upscope $end
$upscope $end
$scope module p1 $end
$var wire 1 6 ADC_finished $end
$var wire 1 # clk $end
$var wire 1 . expose_finished $end
$var wire 4 C read_reg [3:0] $end
$var wire 1 % state_reset $end
$var reg 1 5 ADC_reset $end
$var reg 1 2 convert $end
$var reg 6 D exposeCycles_pixel [5:0] $end
$var reg 1 / expose_enable $end
$var reg 1 - frame_reset $end
$var reg 3 E next_state [2:0] $end
$var reg 1 * read $end
$var reg 1 F read_finished $end
$var reg 3 G state [2:0] $end
$upscope $end
$scope module pa1 $end
$var wire 1 4 bias_clk $end
$var wire 2 H mem_read [1:0] $end
$var wire 1 5 mem_reset $end
$var wire 8 I pixData1 [7:0] $end
$var wire 8 J pixData2 [7:0] $end
$var wire 1 - pixel_erase $end
$var wire 1 0 pixel_expose $end
$var wire 1 3 ramp_clk $end
$scope module ps11 $end
$var wire 8 K DATA [7:0] $end
$var wire 1 0 EXPOSE $end
$var wire 1 5 MEMRESET $end
$var wire 1 - PIXELERASE $end
$var wire 1 3 RAMP $end
$var wire 1 L READ $end
$var wire 1 4 VBN1 $end
$var reg 1 M cmp $end
$var reg 8 N p_data [7:0] $end
$var real 1 O adc $end
$var real 1 P lsb $end
$var real 1 Q tmp $end
$var real 1 R v_erase $end
$upscope $end
$scope module ps12 $end
$var wire 8 S DATA [7:0] $end
$var wire 1 0 EXPOSE $end
$var wire 1 5 MEMRESET $end
$var wire 1 - PIXELERASE $end
$var wire 1 3 RAMP $end
$var wire 1 T READ $end
$var wire 1 4 VBN1 $end
$var reg 1 U cmp $end
$var reg 8 V p_data [7:0] $end
$var real 1 W adc $end
$var real 1 X lsb $end
$var real 1 Y tmp $end
$var real 1 Z v_erase $end
$upscope $end
$scope module ps21 $end
$var wire 8 [ DATA [7:0] $end
$var wire 1 0 EXPOSE $end
$var wire 1 5 MEMRESET $end
$var wire 1 - PIXELERASE $end
$var wire 1 3 RAMP $end
$var wire 1 \ READ $end
$var wire 1 4 VBN1 $end
$var reg 1 ] cmp $end
$var reg 8 ^ p_data [7:0] $end
$var real 1 _ adc $end
$var real 1 ` lsb $end
$var real 1 a tmp $end
$var real 1 b v_erase $end
$upscope $end
$scope module ps22 $end
$var wire 8 c DATA [7:0] $end
$var wire 1 0 EXPOSE $end
$var wire 1 5 MEMRESET $end
$var wire 1 - PIXELERASE $end
$var wire 1 3 RAMP $end
$var wire 1 d READ $end
$var wire 1 4 VBN1 $end
$var reg 1 e cmp $end
$var reg 8 f p_data [7:0] $end
$var real 1 g adc $end
$var real 1 h lsb $end
$var real 1 i tmp $end
$var real 1 j v_erase $end
$upscope $end
$upscope $end
$upscope $end
$upscope $end
$enddefinitions $end
#1000000
$dumpvars
r1.2 j
r1.2 i
r0.004705882352941176 h
r0 g
bx f
0e
xd
bx c
r1.2 b
r1.2 a
r0.004705882352941176 `
r0 _
bx ^
0]
x\
bx [
r1.2 Z
r1.2 Y
r0.004705882352941176 X
r0 W
bx V
0U
0T
bx S
r1.2 R
r1.2 Q
r0.004705882352941176 P
r0 O
bx N
0M
0L
bx K
bx J
bx I
b0x H
b100 G
xF
b0 E
b1010 D
b0xxx C
b0xxx B
0A
bx @
bx ?
b0xxx >
bx =
bx <
b0 ;
0:
b1010 9
bx 8
b0 7
x6
05
04
x3
02
bx 1
x0
0/
x.
0-
bx ,
bx +
0*
b0xxx )
bx (
bx '
b1010 &
0%
b1010 $
0#
bx "
bx !
$end
#1500000
0\
0d
b0 H
b0 G
b0xx )
b0xx >
b0xx B
b0xx C
x4
x:
1#
#2000000
0F
1-
04
0:
0#
#2500000
r1.197647058823529 i
r1.197647058823529 Y
r1.197647058823529 a
r1.197647058823529 Q
0.
10
b0 )
b0 >
b0 B
b0 C
b100 G
b1 E
14
1:
1#
#3000000
r1.2 i
r1.2 Y
r1.2 a
r1.2 Q
0-
04
0:
0#
#3500000
b1 G
r1.197647058823529 Q
r1.197647058823529 a
r1.197647058823529 Y
r1.197647058823529 i
14
1:
1#
#4000000
1L
1T
b10 H
b1000 )
b1000 >
b1000 B
b1000 C
bz V
bz f
bz N
bz ^
bz (
bz =
bz J
bz S
bz c
bz '
bz <
bz I
bz K
bz [
1/
1*
04
0:
0#
#4500000
0L
1\
0T
1d
b1 H
b1 ;
b100 )
b100 >
b100 B
b100 C
bz !
bz +
bz @
bz "
bz ,
bz ?
r1.195294117647059 i
r1.195294117647059 Y
r1.195294117647059 a
r1.195294117647059 Q
14
1:
1#
#5000000
04
0:
0#
#5500000
0\
0d
b0 H
b10 )
b10 >
b10 B
b10 C
b10 ;
r1.192941176470588 Q
r1.192941176470588 a
r1.192941176470588 Y
r1.192941176470588 i
14
1:
1#
#6000000
04
0:
0#
#6500000
b11 ;
b1 )
b1 >
b1 B
b1 C
r1.190588235294117 i
r1.190588235294117 Y
r1.190588235294117 a
r1.190588235294117 Q
14
1:
1#
#7000000
04
0:
0#
#7500000
1F
b0 )
b0 >
b0 B
b0 C
b100 ;
r1.188235294117647 Q
r1.188235294117647 a
r1.188235294117647 Y
r1.188235294117647 i
14
1:
1#
#8000000
04
0:
0#
#8500000
b101 ;
r1.185882352941176 i
r1.185882352941176 Y
r1.185882352941176 a
r1.185882352941176 Q
14
1:
1#
#9000000
04
0:
0#
#9500000
b110 ;
r1.183529411764705 Q
r1.183529411764705 a
r1.183529411764705 Y
r1.183529411764705 i
14
1:
1#
#10000000
04
0:
0#
#10500000
b111 ;
r1.181176470588235 i
r1.181176470588235 Y
r1.181176470588235 a
r1.181176470588235 Q
14
1:
1#
#11000000
04
0:
0#
#11500000
b1000 ;
r1.178823529411764 Q
r1.178823529411764 a
r1.178823529411764 Y
r1.178823529411764 i
14
1:
1#
#12000000
04
0:
0#
#12500000
b1001 ;
r1.176470588235293 i
r1.176470588235293 Y
r1.176470588235293 a
r1.176470588235293 Q
14
1:
1#
#13000000
04
0:
0#
#13500000
b1010 ;
r1.174117647058823 Q
r1.174117647058823 a
r1.174117647058823 Y
r1.174117647058823 i
14
1:
1#
#14000000
04
0:
0#
#14500000
1.
00
r1.171764705882352 i
r1.171764705882352 Y
r1.171764705882352 a
r1.171764705882352 Q
04
0:
1#
#15000000
0#
#15500000
b100 G
b11 E
1#
#16000000
bx V
bx f
bx N
bx ^
bx (
bx =
bx J
bx S
bx c
bx '
bx <
bx I
bx K
bx [
0/
0*
0#
#16500000
b11 G
1#
#17000000
15
0#
#17500000
b100 G
b10 E
06
03
1#
#18000000
05
0#
#18500000
b10 G
1#
#19000000
12
0#
#19500000
b0 V
b0 f
b0 N
b0 ^
b0 (
b0 =
b0 J
b0 S
b0 c
b0 '
b0 <
b0 I
b0 K
b0 [
r0.004705882352941176 O
r0.004705882352941176 _
r0.004705882352941176 W
r0.004705882352941176 g
b0 1
b0 8
b1 7
13
1#
#20000000
03
0#
#20500000
b1 V
b1 f
b1 N
b1 ^
b1 (
b1 =
b1 J
b1 S
b1 c
b1 '
b1 <
b1 I
b1 K
b1 [
r0.009411764705882352 g
r0.009411764705882352 W
r0.009411764705882352 _
r0.009411764705882352 O
b1 1
b1 8
b10 7
13
1#
#21000000
03
0#
#21500000
b10 V
b10 f
b10 N
b10 ^
b10 (
b10 =
b10 J
b10 S
b10 c
b10 '
b10 <
b10 I
b10 K
b10 [
r0.01411764705882353 O
r0.01411764705882353 _
r0.01411764705882353 W
r0.01411764705882353 g
b10 1
b10 8
b11 7
13
1#
#22000000
03
0#
#22500000
b11 V
b11 f
b11 N
b11 ^
b11 (
b11 =
b11 J
b11 S
b11 c
b11 '
b11 <
b11 I
b11 K
b11 [
r0.0188235294117647 g
r0.0188235294117647 W
r0.0188235294117647 _
r0.0188235294117647 O
b11 1
b11 8
b100 7
13
1#
#23000000
03
0#
#23500000
b100 V
b100 f
b100 N
b100 ^
b100 (
b100 =
b100 J
b100 S
b100 c
b100 '
b100 <
b100 I
b100 K
b100 [
r0.02352941176470588 O
r0.02352941176470588 _
r0.02352941176470588 W
r0.02352941176470588 g
b100 1
b100 8
b101 7
13
1#
#24000000
03
0#
#24500000
b101 V
b101 f
b101 N
b101 ^
b101 (
b101 =
b101 J
b101 S
b101 c
b101 '
b101 <
b101 I
b101 K
b101 [
r0.02823529411764706 g
r0.02823529411764706 W
r0.02823529411764706 _
r0.02823529411764706 O
b101 1
b101 8
b110 7
13
1#
#25000000
03
0#
#25500000
b110 V
b110 f
b110 N
b110 ^
b110 (
b110 =
b110 J
b110 S
b110 c
b110 '
b110 <
b110 I
b110 K
b110 [
r0.03294117647058824 O
r0.03294117647058824 _
r0.03294117647058824 W
r0.03294117647058824 g
b110 1
b110 8
b111 7
13
1#
#26000000
03
0#
#26500000
b111 V
b111 f
b111 N
b111 ^
b111 (
b111 =
b111 J
b111 S
b111 c
b111 '
b111 <
b111 I
b111 K
b111 [
r0.03764705882352942 g
r0.03764705882352942 W
r0.03764705882352942 _
r0.03764705882352942 O
b111 1
b111 8
b1000 7
13
1#
#27000000
03
0#
#27500000
b1000 V
b1000 f
b1000 N
b1000 ^
b1000 (
b1000 =
b1000 J
b1000 S
b1000 c
b1000 '
b1000 <
b1000 I
b1000 K
b1000 [
r0.04235294117647059 O
r0.04235294117647059 _
r0.04235294117647059 W
r0.04235294117647059 g
b1000 1
b1000 8
b1001 7
13
1#
#28000000
03
0#
#28500000
b1001 V
b1001 f
b1001 N
b1001 ^
b1001 (
b1001 =
b1001 J
b1001 S
b1001 c
b1001 '
b1001 <
b1001 I
b1001 K
b1001 [
r0.04705882352941177 g
r0.04705882352941177 W
r0.04705882352941177 _
r0.04705882352941177 O
b1001 1
b1001 8
b1010 7
13
1#
#29000000
03
0#
#29500000
b1010 V
b1010 f
b1010 N
b1010 ^
b1010 (
b1010 =
b1010 J
b1010 S
b1010 c
b1010 '
b1010 <
b1010 I
b1010 K
b1010 [
r0.05176470588235295 O
r0.05176470588235295 _
r0.05176470588235295 W
r0.05176470588235295 g
b1010 1
b1010 8
b1011 7
13
1#
#30000000
03
0#
#30500000
b1011 V
b1011 f
b1011 N
b1011 ^
b1011 (
b1011 =
b1011 J
b1011 S
b1011 c
b1011 '
b1011 <
b1011 I
b1011 K
b1011 [
r0.05647058823529413 g
r0.05647058823529413 W
r0.05647058823529413 _
r0.05647058823529413 O
b1011 1
b1011 8
b1100 7
13
1#
#31000000
03
0#
#31500000
b1100 V
b1100 f
b1100 N
b1100 ^
b1100 (
b1100 =
b1100 J
b1100 S
b1100 c
b1100 '
b1100 <
b1100 I
b1100 K
b1100 [
r0.0611764705882353 O
r0.0611764705882353 _
r0.0611764705882353 W
r0.0611764705882353 g
b1100 1
b1100 8
b1101 7
13
1#
#32000000
03
0#
#32500000
b1101 V
b1101 f
b1101 N
b1101 ^
b1101 (
b1101 =
b1101 J
b1101 S
b1101 c
b1101 '
b1101 <
b1101 I
b1101 K
b1101 [
r0.06588235294117648 g
r0.06588235294117648 W
r0.06588235294117648 _
r0.06588235294117648 O
b1101 1
b1101 8
b1110 7
13
1#
#33000000
03
0#
#33500000
b1110 V
b1110 f
b1110 N
b1110 ^
b1110 (
b1110 =
b1110 J
b1110 S
b1110 c
b1110 '
b1110 <
b1110 I
b1110 K
b1110 [
r0.07058823529411765 O
r0.07058823529411765 _
r0.07058823529411765 W
r0.07058823529411765 g
b1110 1
b1110 8
b1111 7
13
1#
#34000000
03
0#
#34500000
b1111 V
b1111 f
b1111 N
b1111 ^
b1111 (
b1111 =
b1111 J
b1111 S
b1111 c
b1111 '
b1111 <
b1111 I
b1111 K
b1111 [
r0.07529411764705882 g
r0.07529411764705882 W
r0.07529411764705882 _
r0.07529411764705882 O
b1111 1
b1111 8
b10000 7
13
1#
#35000000
03
0#
#35500000
b10000 V
b10000 f
b10000 N
b10000 ^
b10000 (
b10000 =
b10000 J
b10000 S
b10000 c
b10000 '
b10000 <
b10000 I
b10000 K
b10000 [
r0.07999999999999999 O
r0.07999999999999999 _
r0.07999999999999999 W
r0.07999999999999999 g
b10000 1
b10000 8
b10001 7
13
1#
#36000000
03
0#
#36500000
b10001 V
b10001 f
b10001 N
b10001 ^
b10001 (
b10001 =
b10001 J
b10001 S
b10001 c
b10001 '
b10001 <
b10001 I
b10001 K
b10001 [
r0.08470588235294116 g
r0.08470588235294116 W
r0.08470588235294116 _
r0.08470588235294116 O
b10001 1
b10001 8
b10010 7
13
1#
#37000000
03
0#
#37500000
b10010 V
b10010 f
b10010 N
b10010 ^
b10010 (
b10010 =
b10010 J
b10010 S
b10010 c
b10010 '
b10010 <
b10010 I
b10010 K
b10010 [
r0.08941176470588233 O
r0.08941176470588233 _
r0.08941176470588233 W
r0.08941176470588233 g
b10010 1
b10010 8
b10011 7
13
1#
#38000000
03
0#
#38500000
b10011 V
b10011 f
b10011 N
b10011 ^
b10011 (
b10011 =
b10011 J
b10011 S
b10011 c
b10011 '
b10011 <
b10011 I
b10011 K
b10011 [
r0.0941176470588235 g
r0.0941176470588235 W
r0.0941176470588235 _
r0.0941176470588235 O
b10011 1
b10011 8
b10100 7
13
1#
#39000000
03
0#
#39500000
b10100 V
b10100 f
b10100 N
b10100 ^
b10100 (
b10100 =
b10100 J
b10100 S
b10100 c
b10100 '
b10100 <
b10100 I
b10100 K
b10100 [
r0.09882352941176467 O
r0.09882352941176467 _
r0.09882352941176467 W
r0.09882352941176467 g
b10100 1
b10100 8
b10101 7
13
1#
#40000000
03
0#
#40500000
b10101 V
b10101 f
b10101 N
b10101 ^
b10101 (
b10101 =
b10101 J
b10101 S
b10101 c
b10101 '
b10101 <
b10101 I
b10101 K
b10101 [
r0.1035294117647058 g
r0.1035294117647058 W
r0.1035294117647058 _
r0.1035294117647058 O
b10101 1
b10101 8
b10110 7
13
1#
#41000000
03
0#
#41500000
b10110 V
b10110 f
b10110 N
b10110 ^
b10110 (
b10110 =
b10110 J
b10110 S
b10110 c
b10110 '
b10110 <
b10110 I
b10110 K
b10110 [
r0.108235294117647 O
r0.108235294117647 _
r0.108235294117647 W
r0.108235294117647 g
b10110 1
b10110 8
b10111 7
13
1#
#42000000
03
0#
#42500000
b10111 V
b10111 f
b10111 N
b10111 ^
b10111 (
b10111 =
b10111 J
b10111 S
b10111 c
b10111 '
b10111 <
b10111 I
b10111 K
b10111 [
r0.1129411764705882 g
r0.1129411764705882 W
r0.1129411764705882 _
r0.1129411764705882 O
b10111 1
b10111 8
b11000 7
13
1#
#43000000
03
0#
#43500000
b11000 V
b11000 f
b11000 N
b11000 ^
b11000 (
b11000 =
b11000 J
b11000 S
b11000 c
b11000 '
b11000 <
b11000 I
b11000 K
b11000 [
r0.1176470588235294 O
r0.1176470588235294 _
r0.1176470588235294 W
r0.1176470588235294 g
b11000 1
b11000 8
b11001 7
13
1#
#44000000
03
0#
#44500000
b11001 V
b11001 f
b11001 N
b11001 ^
b11001 (
b11001 =
b11001 J
b11001 S
b11001 c
b11001 '
b11001 <
b11001 I
b11001 K
b11001 [
r0.1223529411764705 g
r0.1223529411764705 W
r0.1223529411764705 _
r0.1223529411764705 O
b11001 1
b11001 8
b11010 7
13
1#
#45000000
03
0#
#45500000
b11010 V
b11010 f
b11010 N
b11010 ^
b11010 (
b11010 =
b11010 J
b11010 S
b11010 c
b11010 '
b11010 <
b11010 I
b11010 K
b11010 [
r0.1270588235294117 O
r0.1270588235294117 _
r0.1270588235294117 W
r0.1270588235294117 g
b11010 1
b11010 8
b11011 7
13
1#
#46000000
03
0#
#46500000
b11011 V
b11011 f
b11011 N
b11011 ^
b11011 (
b11011 =
b11011 J
b11011 S
b11011 c
b11011 '
b11011 <
b11011 I
b11011 K
b11011 [
r0.1317647058823529 g
r0.1317647058823529 W
r0.1317647058823529 _
r0.1317647058823529 O
b11011 1
b11011 8
b11100 7
13
1#
#47000000
03
0#
#47500000
b11100 V
b11100 f
b11100 N
b11100 ^
b11100 (
b11100 =
b11100 J
b11100 S
b11100 c
b11100 '
b11100 <
b11100 I
b11100 K
b11100 [
r0.136470588235294 O
r0.136470588235294 _
r0.136470588235294 W
r0.136470588235294 g
b11100 1
b11100 8
b11101 7
13
1#
#48000000
03
0#
#48500000
b11101 V
b11101 f
b11101 N
b11101 ^
b11101 (
b11101 =
b11101 J
b11101 S
b11101 c
b11101 '
b11101 <
b11101 I
b11101 K
b11101 [
r0.1411764705882352 g
r0.1411764705882352 W
r0.1411764705882352 _
r0.1411764705882352 O
b11101 1
b11101 8
b11110 7
13
1#
#49000000
03
0#
#49500000
b11110 V
b11110 f
b11110 N
b11110 ^
b11110 (
b11110 =
b11110 J
b11110 S
b11110 c
b11110 '
b11110 <
b11110 I
b11110 K
b11110 [
r0.1458823529411764 O
r0.1458823529411764 _
r0.1458823529411764 W
r0.1458823529411764 g
b11110 1
b11110 8
b11111 7
13
1#
#50000000
03
0#
#50500000
b11111 V
b11111 f
b11111 N
b11111 ^
b11111 (
b11111 =
b11111 J
b11111 S
b11111 c
b11111 '
b11111 <
b11111 I
b11111 K
b11111 [
r0.1505882352941176 g
r0.1505882352941176 W
r0.1505882352941176 _
r0.1505882352941176 O
b11111 1
b11111 8
b100000 7
13
1#
#51000000
03
0#
#51500000
b100000 V
b100000 f
b100000 N
b100000 ^
b100000 (
b100000 =
b100000 J
b100000 S
b100000 c
b100000 '
b100000 <
b100000 I
b100000 K
b100000 [
r0.1552941176470587 O
r0.1552941176470587 _
r0.1552941176470587 W
r0.1552941176470587 g
b100000 1
b100000 8
b100001 7
13
1#
#52000000
03
0#
#52500000
b100001 V
b100001 f
b100001 N
b100001 ^
b100001 (
b100001 =
b100001 J
b100001 S
b100001 c
b100001 '
b100001 <
b100001 I
b100001 K
b100001 [
r0.1599999999999999 g
r0.1599999999999999 W
r0.1599999999999999 _
r0.1599999999999999 O
b100001 1
b100001 8
b100010 7
13
1#
#53000000
03
0#
#53500000
b100010 V
b100010 f
b100010 N
b100010 ^
b100010 (
b100010 =
b100010 J
b100010 S
b100010 c
b100010 '
b100010 <
b100010 I
b100010 K
b100010 [
r0.1647058823529411 O
r0.1647058823529411 _
r0.1647058823529411 W
r0.1647058823529411 g
b100010 1
b100010 8
b100011 7
13
1#
#54000000
03
0#
#54500000
b100011 V
b100011 f
b100011 N
b100011 ^
b100011 (
b100011 =
b100011 J
b100011 S
b100011 c
b100011 '
b100011 <
b100011 I
b100011 K
b100011 [
r0.1694117647058822 g
r0.1694117647058822 W
r0.1694117647058822 _
r0.1694117647058822 O
b100011 1
b100011 8
b100100 7
13
1#
#55000000
03
0#
#55500000
b100100 V
b100100 f
b100100 N
b100100 ^
b100100 (
b100100 =
b100100 J
b100100 S
b100100 c
b100100 '
b100100 <
b100100 I
b100100 K
b100100 [
r0.1741176470588234 O
r0.1741176470588234 _
r0.1741176470588234 W
r0.1741176470588234 g
b100100 1
b100100 8
b100101 7
13
1#
#56000000
03
0#
#56500000
b100101 V
b100101 f
b100101 N
b100101 ^
b100101 (
b100101 =
b100101 J
b100101 S
b100101 c
b100101 '
b100101 <
b100101 I
b100101 K
b100101 [
r0.1788235294117646 g
r0.1788235294117646 W
r0.1788235294117646 _
r0.1788235294117646 O
b100101 1
b100101 8
b100110 7
13
1#
#57000000
03
0#
#57500000
b100110 V
b100110 f
b100110 N
b100110 ^
b100110 (
b100110 =
b100110 J
b100110 S
b100110 c
b100110 '
b100110 <
b100110 I
b100110 K
b100110 [
r0.1835294117647057 O
r0.1835294117647057 _
r0.1835294117647057 W
r0.1835294117647057 g
b100110 1
b100110 8
b100111 7
13
1#
#58000000
03
0#
#58500000
b100111 V
b100111 f
b100111 N
b100111 ^
b100111 (
b100111 =
b100111 J
b100111 S
b100111 c
b100111 '
b100111 <
b100111 I
b100111 K
b100111 [
r0.1882352941176469 g
r0.1882352941176469 W
r0.1882352941176469 _
r0.1882352941176469 O
b100111 1
b100111 8
b101000 7
13
1#
#59000000
03
0#
#59500000
b101000 V
b101000 f
b101000 N
b101000 ^
b101000 (
b101000 =
b101000 J
b101000 S
b101000 c
b101000 '
b101000 <
b101000 I
b101000 K
b101000 [
r0.1929411764705881 O
r0.1929411764705881 _
r0.1929411764705881 W
r0.1929411764705881 g
b101000 1
b101000 8
b101001 7
13
1#
#60000000
03
0#
#60500000
b101001 V
b101001 f
b101001 N
b101001 ^
b101001 (
b101001 =
b101001 J
b101001 S
b101001 c
b101001 '
b101001 <
b101001 I
b101001 K
b101001 [
r0.1976470588235293 g
r0.1976470588235293 W
r0.1976470588235293 _
r0.1976470588235293 O
b101001 1
b101001 8
b101010 7
13
1#
#61000000
03
0#
#61500000
b101010 V
b101010 f
b101010 N
b101010 ^
b101010 (
b101010 =
b101010 J
b101010 S
b101010 c
b101010 '
b101010 <
b101010 I
b101010 K
b101010 [
r0.2023529411764704 O
r0.2023529411764704 _
r0.2023529411764704 W
r0.2023529411764704 g
b101010 1
b101010 8
b101011 7
13
1#
#62000000
03
0#
#62500000
b101011 V
b101011 f
b101011 N
b101011 ^
b101011 (
b101011 =
b101011 J
b101011 S
b101011 c
b101011 '
b101011 <
b101011 I
b101011 K
b101011 [
r0.2070588235294116 g
r0.2070588235294116 W
r0.2070588235294116 _
r0.2070588235294116 O
b101011 1
b101011 8
b101100 7
13
1#
#63000000
03
0#
#63500000
b101100 V
b101100 f
b101100 N
b101100 ^
b101100 (
b101100 =
b101100 J
b101100 S
b101100 c
b101100 '
b101100 <
b101100 I
b101100 K
b101100 [
r0.2117647058823528 O
r0.2117647058823528 _
r0.2117647058823528 W
r0.2117647058823528 g
b101100 1
b101100 8
b101101 7
13
1#
#64000000
03
0#
#64500000
b101101 V
b101101 f
b101101 N
b101101 ^
b101101 (
b101101 =
b101101 J
b101101 S
b101101 c
b101101 '
b101101 <
b101101 I
b101101 K
b101101 [
r0.2164705882352939 g
r0.2164705882352939 W
r0.2164705882352939 _
r0.2164705882352939 O
b101101 1
b101101 8
b101110 7
13
1#
#65000000
03
0#
#65500000
b101110 V
b101110 f
b101110 N
b101110 ^
b101110 (
b101110 =
b101110 J
b101110 S
b101110 c
b101110 '
b101110 <
b101110 I
b101110 K
b101110 [
r0.2211764705882351 O
r0.2211764705882351 _
r0.2211764705882351 W
r0.2211764705882351 g
b101110 1
b101110 8
b101111 7
13
1#
#66000000
03
0#
#66500000
b101111 V
b101111 f
b101111 N
b101111 ^
b101111 (
b101111 =
b101111 J
b101111 S
b101111 c
b101111 '
b101111 <
b101111 I
b101111 K
b101111 [
r0.2258823529411763 g
r0.2258823529411763 W
r0.2258823529411763 _
r0.2258823529411763 O
b101111 1
b101111 8
b110000 7
13
1#
#67000000
03
0#
#67500000
b110000 V
b110000 f
b110000 N
b110000 ^
b110000 (
b110000 =
b110000 J
b110000 S
b110000 c
b110000 '
b110000 <
b110000 I
b110000 K
b110000 [
r0.2305882352941175 O
r0.2305882352941175 _
r0.2305882352941175 W
r0.2305882352941175 g
b110000 1
b110000 8
b110001 7
13
1#
#68000000
03
0#
#68500000
b110001 V
b110001 f
b110001 N
b110001 ^
b110001 (
b110001 =
b110001 J
b110001 S
b110001 c
b110001 '
b110001 <
b110001 I
b110001 K
b110001 [
r0.2352941176470586 g
r0.2352941176470586 W
r0.2352941176470586 _
r0.2352941176470586 O
b110001 1
b110001 8
b110010 7
13
1#
#69000000
03
0#
#69500000
b110010 V
b110010 f
b110010 N
b110010 ^
b110010 (
b110010 =
b110010 J
b110010 S
b110010 c
b110010 '
b110010 <
b110010 I
b110010 K
b110010 [
r0.2399999999999998 O
r0.2399999999999998 _
r0.2399999999999998 W
r0.2399999999999998 g
b110010 1
b110010 8
b110011 7
13
1#
#70000000
03
0#
#70500000
b110011 V
b110011 f
b110011 N
b110011 ^
b110011 (
b110011 =
b110011 J
b110011 S
b110011 c
b110011 '
b110011 <
b110011 I
b110011 K
b110011 [
r0.244705882352941 g
r0.244705882352941 W
r0.244705882352941 _
r0.244705882352941 O
b110011 1
b110011 8
b110100 7
13
1#
#71000000
03
0#
#71500000
b110100 V
b110100 f
b110100 N
b110100 ^
b110100 (
b110100 =
b110100 J
b110100 S
b110100 c
b110100 '
b110100 <
b110100 I
b110100 K
b110100 [
r0.2494117647058821 O
r0.2494117647058821 _
r0.2494117647058821 W
r0.2494117647058821 g
b110100 1
b110100 8
b110101 7
13
1#
#72000000
03
0#
#72500000
b110101 V
b110101 f
b110101 N
b110101 ^
b110101 (
b110101 =
b110101 J
b110101 S
b110101 c
b110101 '
b110101 <
b110101 I
b110101 K
b110101 [
r0.2541176470588233 g
r0.2541176470588233 W
r0.2541176470588233 _
r0.2541176470588233 O
b110101 1
b110101 8
b110110 7
13
1#
#73000000
03
0#
#73500000
b110110 V
b110110 f
b110110 N
b110110 ^
b110110 (
b110110 =
b110110 J
b110110 S
b110110 c
b110110 '
b110110 <
b110110 I
b110110 K
b110110 [
r0.2588235294117645 O
r0.2588235294117645 _
r0.2588235294117645 W
r0.2588235294117645 g
b110110 1
b110110 8
b110111 7
13
1#
#74000000
03
0#
#74500000
b110111 V
b110111 f
b110111 N
b110111 ^
b110111 (
b110111 =
b110111 J
b110111 S
b110111 c
b110111 '
b110111 <
b110111 I
b110111 K
b110111 [
r0.2635294117647057 g
r0.2635294117647057 W
r0.2635294117647057 _
r0.2635294117647057 O
b110111 1
b110111 8
b111000 7
13
1#
#75000000
03
0#
#75500000
b111000 V
b111000 f
b111000 N
b111000 ^
b111000 (
b111000 =
b111000 J
b111000 S
b111000 c
b111000 '
b111000 <
b111000 I
b111000 K
b111000 [
r0.2682352941176468 O
r0.2682352941176468 _
r0.2682352941176468 W
r0.2682352941176468 g
b111000 1
b111000 8
b111001 7
13
1#
#76000000
03
0#
#76500000
b111001 V
b111001 f
b111001 N
b111001 ^
b111001 (
b111001 =
b111001 J
b111001 S
b111001 c
b111001 '
b111001 <
b111001 I
b111001 K
b111001 [
r0.272941176470588 g
r0.272941176470588 W
r0.272941176470588 _
r0.272941176470588 O
b111001 1
b111001 8
b111010 7
13
1#
#77000000
03
0#
#77500000
b111010 V
b111010 f
b111010 N
b111010 ^
b111010 (
b111010 =
b111010 J
b111010 S
b111010 c
b111010 '
b111010 <
b111010 I
b111010 K
b111010 [
r0.2776470588235292 O
r0.2776470588235292 _
r0.2776470588235292 W
r0.2776470588235292 g
b111010 1
b111010 8
b111011 7
13
1#
#78000000
03
0#
#78500000
b111011 V
b111011 f
b111011 N
b111011 ^
b111011 (
b111011 =
b111011 J
b111011 S
b111011 c
b111011 '
b111011 <
b111011 I
b111011 K
b111011 [
r0.2823529411764704 g
r0.2823529411764704 W
r0.2823529411764704 _
r0.2823529411764704 O
b111011 1
b111011 8
b111100 7
13
1#
#79000000
03
0#
#79500000
b111100 V
b111100 f
b111100 N
b111100 ^
b111100 (
b111100 =
b111100 J
b111100 S
b111100 c
b111100 '
b111100 <
b111100 I
b111100 K
b111100 [
r0.2870588235294115 O
r0.2870588235294115 _
r0.2870588235294115 W
r0.2870588235294115 g
b111100 1
b111100 8
b111101 7
13
1#
#80000000
03
0#
#80500000
b111101 V
b111101 f
b111101 N
b111101 ^
b111101 (
b111101 =
b111101 J
b111101 S
b111101 c
b111101 '
b111101 <
b111101 I
b111101 K
b111101 [
r0.2917647058823527 g
r0.2917647058823527 W
r0.2917647058823527 _
r0.2917647058823527 O
b111101 1
b111101 8
b111110 7
13
1#
#81000000
03
0#
#81500000
b111110 V
b111110 f
b111110 N
b111110 ^
b111110 (
b111110 =
b111110 J
b111110 S
b111110 c
b111110 '
b111110 <
b111110 I
b111110 K
b111110 [
r0.2964705882352939 O
r0.2964705882352939 _
r0.2964705882352939 W
r0.2964705882352939 g
b111110 1
b111110 8
b111111 7
13
1#
#82000000
03
0#
